<?xml version="1.0" ?>

<robot name="camera_stand" xmlns:xacro="http://ros.org/wiki/xacro">


  <link name="world_new"/>
  <joint name="world_new_joint" type="fixed">
    <parent link="world_new"/>
    <child link="camera_stand_base_link"/>
    <origin rpy="0.0 0.0 0.0" xyz="0 0 1.0"/>
  </joint>


  <link name="camera_stand_base_link">
    <visual>
      <geometry>
        <box size="0.024 0.024 2"/>
      </geometry>
      <material name="LightGrey">
        <color rgba="0.7 0.7 0.7 1.0"/>
      </material>
    </visual>
    <collision>
      <geometry>
        <box size="0.024 0.024 2"/>
      </geometry>
    </collision>
    <inertial>
      <mass value="4.0"/>
      <origin rpy="0 0 0" xyz="0.0 0.0 0.0"/>
      <inertia ixx="0.0061063308908" ixy="0.0" ixz="0.0" iyy="0.0061063308908" iyz="0.0" izz="0.01125"/>
    </inertial>
  </link>

  <joint name="first_fixed_joint" type="fixed">
    <parent link="camera_stand_base_link"/>
    <child link="hanger_link"/>
    <origin rpy="1.57075 0.0 1.57075" xyz="1.0 0.0 1.0"/>
  </joint>



  <link name="hanger_link">
    <visual>
      <geometry>
        <box size="0.024 0.024 2"/>
      </geometry>
      <material name="LightGrey">
        <color rgba="1 1 1 1"/>
      </material>
    </visual>
    <collision>
      <geometry>
        <box size="0.024 0.024 2"/>
      </geometry>
    </collision>
    <inertial>
      <mass value="4.0"/>
      <origin rpy="0 0 0" xyz="0.0 0.0 0.0"/>
      <inertia ixx="0.0061063308908" ixy="0.0" ixz="0.0" iyy="0.0061063308908" iyz="0.0" izz="0.01125"/>
    </inertial>
  </link>



    <joint name="camera_base_fixed_joint" type="fixed">
        <parent link="hanger_link"/>
        <child link="camera_base_link"/>
        <origin rpy="1.57075 0.0 1.57075" xyz="0.0 0.0 0.0"/>
    </joint>


    <link name="camera_base_link"/>
    

    <xacro:include filename="$(find realsense2_description)/urdf/_d435.urdf.xacro"/>
    <xacro:include filename="$(find realsense2_description)/urdf/_d435i_imu_modules.urdf.xacro"/>
  
    <xacro:sensor_d435 name="camera" topics_ns="camera" parent="camera_base_link" publish_pointcloud="true">
        <origin xyz="-0.024 0 0" rpy="0 3.1415 0" />
    </xacro:sensor_d435>
    <xacro:d435i_imu_modules name="camera" use_nominal_extrinsics="true"/>












</robot>